{
	"info": {
		"_postman_id": "372a824e-e947-47c4-ad11-cc2c1ffb4077",
		"name": "Overtime",
		"schema": "https://schema.getpostman.com/json/collection/v2.1.0/collection.json"
	},
	"item": [
		{
			"name": "Login",
			"request": {
				"method": "POST",
				"header": [],
				"body": {
					"mode": "raw",
					"raw": "{\r\n    \"username\":\"roger\",\r\n    \"password\":\"123456\"\r\n}",
					"options": {
						"raw": {
							"language": "json"
						}
					}
				},
				"url": {
					"raw": "{{base_url}}/auth/login",
					"host": [
						"{{base_url}}"
					],
					"path": [
						"auth",
						"login"
					]
				},
				"description": "This endpoint takes two required parameters, username & password, and returns an access token. The access token can then be used in the format `Bearer {token}` to perform all additional requests."
			},
			"response": []
		},
		{
			"name": "Create User",
			"request": {
				"auth": {
					"type": "bearer",
					"bearer": [
						{
							"key": "token",
							"value": "{{token}}",
							"type": "string"
						}
					]
				},
				"method": "POST",
				"header": [],
				"body": {
					"mode": "raw",
					"raw": "{\r\n    \"username\":\"seth\",\r\n    \"password\":\"password123456\"\r\n}",
					"options": {
						"raw": {
							"language": "json"
						}
					}
				},
				"url": {
					"raw": "{{base_url}}/users",
					"host": [
						"{{base_url}}"
					],
					"path": [
						"users"
					]
				},
				"description": "This endpoint creates a new user. All properties of the user model can be used but username and password are required."
			},
			"response": []
		},
		{
			"name": "All Users",
			"request": {
				"auth": {
					"type": "bearer",
					"bearer": [
						{
							"key": "token",
							"value": "{{token}}",
							"type": "string"
						}
					]
				},
				"method": "GET",
				"header": [],
				"url": {
					"raw": "{{base_url}}/users",
					"host": [
						"{{base_url}}"
					],
					"path": [
						"users"
					]
				},
				"description": "This endpoint returns a list of all users excluding their encrypted password & the `follows` array."
			},
			"response": []
		},
		{
			"name": "Single User",
			"request": {
				"auth": {
					"type": "bearer",
					"bearer": [
						{
							"key": "token",
							"value": "{{token}}",
							"type": "string"
						}
					]
				},
				"method": "GET",
				"header": [],
				"url": {
					"raw": "{{base_url}}/users/61beed59c2336220640ec0d5",
					"host": [
						"{{base_url}}"
					],
					"path": [
						"users",
						"61beed59c2336220640ec0d5"
					]
				},
				"description": "This endpoint takes a `UserId` URL parameter and returns all information about that user."
			},
			"response": []
		},
		{
			"name": "Update User (actions)",
			"request": {
				"auth": {
					"type": "bearer",
					"bearer": [
						{
							"key": "token",
							"value": "{{token}}",
							"type": "string"
						}
					]
				},
				"method": "PUT",
				"header": [],
				"body": {
					"mode": "raw",
					"raw": "{\r\n    \"actions\":\"follow\",\r\n    \"followerId\":\"61beed59c2336220640ec0d5\"\r\n}",
					"options": {
						"raw": {
							"language": "json"
						}
					}
				},
				"url": {
					"raw": "{{base_url}}/users/61beed59c2336220640ec0d5",
					"host": [
						"{{base_url}}"
					],
					"path": [
						"users",
						"61beed59c2336220640ec0d5"
					]
				},
				"description": "This endpoint updates a user according to the action provided.\n\n*   `view` increments the number of views by 1\n*   `follow` requires an additional parameter of `followId` and adds the ID to the user's list of follows.\n*   `unfollow` requires an additional parameter of `followId` and removes the ID from the user's list of follows.\n    \n\nIf an action other than those above is used, the endpoint will return a 400 error."
			},
			"response": []
		}
	]
}